;*************************************************************
;*************************************************************
;**                                                         **
;**                    REAL / ...                           **
;**                    ... / REAL                           **
;**                                                         **
;*************************************************************
;*************************************************************
In: FL_SPCRES=0 FL_CPXRES=0 SD=0 RM=0 IM=2compl SS=4 WS=64
Func: fnDivide



;==================================================================
; Real / Long Integer      see in division_longInteger.txt
; Real / Time              see in division_time.txt
; Real / Date              see in division_date.txt
; Real / String            see in division_string.txt
; Real / Real Matrix       see in division_realMatrix.txt
; Real / Complex Matrix    see in division_complexMatrix.txt
; Real / Short Integer     see in division_shortInteger.txt
;==================================================================



;=======================================
; Real / Real --> Real
;=======================================
In:  FL_ASLIFT=0 FL_CPXRES=0 IM=2COMPL RY=Real:"123456.789" RX=Real:"45247.54264"
Out: EC=0 FL_CPXRES=0 FL_ASLIFT=1 RL=Real:"45247.54264" RX=Real:"2.7284750021067663443832935630998943459971288288287029945102893"

In:  AM=DEG FL_CPXRES=0 FL_ASLIFT=0 RY=Real:"2" RX=Real:"123.4":DEG
Out: EC=0 FL_CPXRES=0 FL_ASLIFT=1 RL=Real:"123.4":DEG RX=Real:"0.016207455429497568881685575364667747163695299837925445705024311"

In:  AM=DMS FL_CPXRES=0 FL_ASLIFT=0 RY=Real:"2" RX=Real:"123.4":DEG
Out: EC=0 FL_CPXRES=0 FL_ASLIFT=1 RL=Real:"123.4":DEG RX=Real:"0.016207455429497568881685575364667747163695299837925445705024311"

In:  AM=GRAD FL_CPXRES=0 FL_ASLIFT=0 RY=Real:"2" RX=Real:"123.4":DEG
Out: EC=0 FL_CPXRES=0 FL_ASLIFT=1 RL=Real:"123.4":DEG RX=Real:"0.016207455429497568881685575364667747163695299837925445705024311"

In:  AM=RAD FL_CPXRES=0 FL_ASLIFT=0 RY=Real:"2" RX=Real:"123.4":DEG
Out: EC=0 FL_CPXRES=0 FL_ASLIFT=1 RL=Real:"123.4":DEG RX=Real:"0.016207455429497568881685575364667747163695299837925445705024311"

In:  AM=MULTPI FL_CPXRES=0 FL_ASLIFT=0 RY=Real:"2" RX=Real:"123.4":DEG
Out: EC=0 FL_CPXRES=0 FL_ASLIFT=1 RL=Real:"123.4":DEG RX=Real:"0.016207455429497568881685575364667747163695299837925445705024311"

In:  AM=DEG FL_CPXRES=0 FL_ASLIFT=0 RY=Real:"2" RX=Real:"123.453099":DMS
Out: EC=0 FL_CPXRES=0 FL_ASLIFT=1 RL=Real:"123.453099":DMS RX=Real:"0.016200484363701554385443171418483386958151613512755965729138966"

In:  AM=DMS FL_CPXRES=0 FL_ASLIFT=0 RY=Real:"2" RX=Real:"123.453099":DMS
Out: EC=0 FL_CPXRES=0 FL_ASLIFT=1 RL=Real:"123.453099":DMS RX=Real:"0.016200484363701554385443171418483386958151613512755965729138966"

In:  AM=GRAD FL_CPXRES=0 FL_ASLIFT=0 RY=Real:"2" RX=Real:"123.453099":DMS
Out: EC=0 FL_CPXRES=0 FL_ASLIFT=1 RL=Real:"123.453099":DMS RX=Real:"0.016200484363701554385443171418483386958151613512755965729138966"

In:  AM=RAD FL_CPXRES=0 FL_ASLIFT=0 RY=Real:"2" RX=Real:"123.453099":DMS
Out: EC=0 FL_CPXRES=0 FL_ASLIFT=1 RL=Real:"123.453099":DMS RX=Real:"0.016200484363701554385443171418483386958151613512755965729138966"

In:  AM=MULTPI FL_CPXRES=0 FL_ASLIFT=0 RY=Real:"2" RX=Real:"123.453099":DMS
Out: EC=0 FL_CPXRES=0 FL_ASLIFT=1 RL=Real:"123.453099":DMS RX=Real:"0.016200484363701554385443171418483386958151613512755965729138966"

In:  AM=DEG FL_CPXRES=0 FL_ASLIFT=0 RY=Real:"2" RX=Real:"123.453099":GRAD
Out: EC=0 FL_CPXRES=0 FL_ASLIFT=1 RL=Real:"123.453099":GRAD RX=Real:"0.016200484363701554385443171418483386958151613512755965729138966"

In:  AM=DMS FL_CPXRES=0 FL_ASLIFT=0 RY=Real:"2" RX=Real:"123.453099":GRAD
Out: EC=0 FL_CPXRES=0 FL_ASLIFT=1 RL=Real:"123.453099":GRAD RX=Real:"0.016200484363701554385443171418483386958151613512755965729138966"

In:  AM=GRAD FL_CPXRES=0 FL_ASLIFT=0 RY=Real:"2" RX=Real:"123.453099":GRAD
Out: EC=0 FL_CPXRES=0 FL_ASLIFT=1 RL=Real:"123.453099":GRAD RX=Real:"0.016200484363701554385443171418483386958151613512755965729138966"

In:  AM=RAD FL_CPXRES=0 FL_ASLIFT=0 RY=Real:"2" RX=Real:"123.453099":GRAD
Out: EC=0 FL_CPXRES=0 FL_ASLIFT=1 RL=Real:"123.453099":GRAD RX=Real:"0.016200484363701554385443171418483386958151613512755965729138966"

In:  AM=MULTPI FL_CPXRES=0 FL_ASLIFT=0 RY=Real:"2" RX=Real:"123.453099":GRAD
Out: EC=0 FL_CPXRES=0 FL_ASLIFT=1 RL=Real:"123.453099":GRAD RX=Real:"0.016200484363701554385443171418483386958151613512755965729138966"

In:  AM=DEG FL_CPXRES=0 FL_ASLIFT=0 RY=Real:"2" RX=Real:"3.453099789":RAD
Out: EC=0 FL_CPXRES=0 FL_ASLIFT=1 RL=Real:"3.453099789":RAD RX=Real:"0.57918974898179520869907880904278147404560859043277419747917977"

In:  AM=DMS FL_CPXRES=0 FL_ASLIFT=0 RY=Real:"2" RX=Real:"3.453099789":RAD
Out: EC=0 FL_CPXRES=0 FL_ASLIFT=1 RL=Real:"3.453099789":RAD RX=Real:"0.57918974898179520869907880904278147404560859043277419747917977"

In:  AM=GRAD FL_CPXRES=0 FL_ASLIFT=0 RY=Real:"2" RX=Real:"3.453099789":RAD
Out: EC=0 FL_CPXRES=0 FL_ASLIFT=1 RL=Real:"3.453099789":RAD RX=Real:"0.57918974898179520869907880904278147404560859043277419747917977"

In:  AM=RAD FL_CPXRES=0 FL_ASLIFT=0 RY=Real:"2" RX=Real:"3.453099789":RAD
Out: EC=0 FL_CPXRES=0 FL_ASLIFT=1 RL=Real:"3.453099789":RAD RX=Real:"0.57918974898179520869907880904278147404560859043277419747917977"

In:  AM=MULTPI FL_CPXRES=0 FL_ASLIFT=0 RY=Real:"2" RX=Real:"3.453099789":RAD
Out: EC=0 FL_CPXRES=0 FL_ASLIFT=1 RL=Real:"3.453099789":RAD RX=Real:"0.57918974898179520869907880904278147404560859043277419747917977"

In:  AM=DEG FL_CPXRES=0 FL_ASLIFT=0 RY=Real:"2" RX=Real:"3.453099789":MULTPI
Out: EC=0 FL_CPXRES=0 FL_ASLIFT=1 RL=Real:"3.453099789":MULTPI RX=Real:"0.57918974898179520869907880904278147404560859043277419747917977"

In:  AM=DMS FL_CPXRES=0 FL_ASLIFT=0 RY=Real:"2" RX=Real:"3.453099789":MULTPI
Out: EC=0 FL_CPXRES=0 FL_ASLIFT=1 RL=Real:"3.453099789":MULTPI RX=Real:"0.57918974898179520869907880904278147404560859043277419747917977"

In:  AM=GRAD FL_CPXRES=0 FL_ASLIFT=0 RY=Real:"2" RX=Real:"3.453099789":MULTPI
Out: EC=0 FL_CPXRES=0 FL_ASLIFT=1 RL=Real:"3.453099789":MULTPI RX=Real:"0.57918974898179520869907880904278147404560859043277419747917977"

In:  AM=RAD FL_CPXRES=0 FL_ASLIFT=0 RY=Real:"2" RX=Real:"3.453099789":MULTPI
Out: EC=0 FL_CPXRES=0 FL_ASLIFT=1 RL=Real:"3.453099789":MULTPI RX=Real:"0.57918974898179520869907880904278147404560859043277419747917977"

In:  AM=MULTPI FL_CPXRES=0 FL_ASLIFT=0 RY=Real:"2" RX=Real:"3.453099789":MULTPI
Out: EC=0 FL_CPXRES=0 FL_ASLIFT=1 RL=Real:"3.453099789":MULTPI RX=Real:"0.57918974898179520869907880904278147404560859043277419747917977"

In:  AM=DEG FL_CPXRES=0 FL_ASLIFT=0 RY=Real:"123.4":DEG RX=Real:"2"
Out: EC=0 FL_CPXRES=0 FL_ASLIFT=1 RL=Real:"2" RX=Real:"61.7":DEG

In:  AM=DMS FL_CPXRES=0 FL_ASLIFT=0 RY=Real:"123.4":DEG RX=Real:"2"
Out: EC=0 FL_CPXRES=0 FL_ASLIFT=1 RL=Real:"2" RX=Real:"61.7":DMS

In:  AM=GRAD FL_CPXRES=0 FL_ASLIFT=0 RY=Real:"123.4":DEG RX=Real:"2"
Out: EC=0 FL_CPXRES=0 FL_ASLIFT=1 RL=Real:"2" RX=Real:"68.555555555555555555555555555555555555555555555555555555555556":GRAD

In:  AM=RAD FL_CPXRES=0 FL_ASLIFT=0 RY=Real:"123.4":DEG RX=Real:"2"
Out: EC=0 FL_CPXRES=0 FL_ASLIFT=1 RL=Real:"2" RX=Real:"1.0768681484805013489619172041574740441942519552302446064119671":RAD

In:  AM=MULTPI FL_CPXRES=0 FL_ASLIFT=0 RY=Real:"123.4":DEG RX=Real:"2"
Out: EC=0 FL_CPXRES=0 FL_ASLIFT=1 RL=Real:"2" RX=Real:"1.0768681484805013489619172041574740441942519552302446064119671":MULTPI

In:  AM=DEG FL_CPXRES=0 FL_ASLIFT=0 RY=Real:"123.453099":DMS RX=Real:"2"
Out: EC=0 FL_CPXRES=0 FL_ASLIFT=1 RL=Real:"2" RX=Real:"61.7265495":DEG

In:  AM=DMS FL_CPXRES=0 FL_ASLIFT=0 RY=Real:"123.453099":DMS RX=Real:"2"
Out: EC=0 FL_CPXRES=0 FL_ASLIFT=1 RL=Real:"2" RX=Real:"61.7265495":DMS

In:  AM=GRAD FL_CPXRES=0 FL_ASLIFT=0 RY=Real:"123.453099":DMS RX=Real:"2"
Out: EC=0 FL_CPXRES=0 FL_ASLIFT=1 RL=Real:"2" RX=Real:"68.585055":GRAD

In:  AM=RAD FL_CPXRES=0 FL_ASLIFT=0 RY=Real:"123.453099":DMS RX=Real:"2"
Out: EC=0 FL_CPXRES=0 FL_ASLIFT=1 RL=Real:"2" RX=Real:"1.0773315246702595834929425594380539284266074705022929918119336":RAD

In:  AM=MULTPI FL_CPXRES=0 FL_ASLIFT=0 RY=Real:"123.453099":DMS RX=Real:"2"
Out: EC=0 FL_CPXRES=0 FL_ASLIFT=1 RL=Real:"2" RX=Real:"1.0773315246702595834929425594380539284266074705022929918119336":MULTPI

In:  AM=DEG FL_CPXRES=0 FL_ASLIFT=0 RY=Real:"123.453099":GRAD RX=Real:"2"
Out: EC=0 FL_CPXRES=0 FL_ASLIFT=1 RL=Real:"2" RX=Real:"55.55389455":DEG

In:  AM=DMS FL_CPXRES=0 FL_ASLIFT=0 RY=Real:"123.453099":GRAD RX=Real:"2"
Out: EC=0 FL_CPXRES=0 FL_ASLIFT=1 RL=Real:"2" RX=Real:"55.55389455":DMS

In:  AM=GRAD FL_CPXRES=0 FL_ASLIFT=0 RY=Real:"123.453099":GRAD RX=Real:"2"
Out: EC=0 FL_CPXRES=0 FL_ASLIFT=1 RL=Real:"2" RX=Real:"61.7265495":GRAD

In:  AM=RAD FL_CPXRES=0 FL_ASLIFT=0 RY=Real:"123.453099":GRAD RX=Real:"2"
Out: EC=0 FL_CPXRES=0 FL_ASLIFT=1 RL=Real:"2" RX=Real:"0.96959837220323362514364830349424853558394672345206369263074028":RAD

In:  AM=MULTPI FL_CPXRES=0 FL_ASLIFT=0 RY=Real:"123.453099":GRAD RX=Real:"2"
Out: EC=0 FL_CPXRES=0 FL_ASLIFT=1 RL=Real:"2" RX=Real:"0.96959837220323362514364830349424853558394672345206369263074028":MULTPI

In:  AM=DEG FL_CPXRES=0 FL_ASLIFT=0 RY=Real:"3.453099789":RAD RX=Real:"2"
Out: EC=0 FL_CPXRES=0 FL_ASLIFT=1 RL=Real:"2" RX=Real:"98.9240220736075424796510016920879489493191984183692841481667":DEG

In:  AM=DMS FL_CPXRES=0 FL_ASLIFT=0 RY=Real:"3.453099789":RAD RX=Real:"2"
Out: EC=0 FL_CPXRES=0 FL_ASLIFT=1 RL=Real:"2" RX=Real:"98.9240220736075424796510016920879489493191984183692841481667":DMS

In:  AM=GRAD FL_CPXRES=0 FL_ASLIFT=0 RY=Real:"3.453099789":RAD RX=Real:"2"
Out: EC=0 FL_CPXRES=0 FL_ASLIFT=1 RL=Real:"2" RX=Real:"109.91558008178615831072333521343105438813244268707698238685188":GRAD

In:  AM=RAD FL_CPXRES=0 FL_ASLIFT=0 RY=Real:"3.453099789":RAD RX=Real:"2"
Out: EC=0 FL_CPXRES=0 FL_ASLIFT=1 RL=Real:"2" RX=Real:"1.7265498945":RAD

In:  AM=MULTPI FL_CPXRES=0 FL_ASLIFT=0 RY=Real:"3.453099789":RAD RX=Real:"2"
Out: EC=0 FL_CPXRES=0 FL_ASLIFT=1 RL=Real:"2" RX=Real:"1.7265498945":MULTPI

In:  AM=DEG FL_CPXRES=0 FL_ASLIFT=0 RY=Real:"3.453099789":MULTPI RX=Real:"2"
Out: EC=0 FL_CPXRES=0 FL_ASLIFT=1 RL=Real:"2" RX=Real:"98.9240220736075424796510016920879489493191984183692841481667":DEG

In:  AM=DMS FL_CPXRES=0 FL_ASLIFT=0 RY=Real:"3.453099789":MULTPI RX=Real:"2"
Out: EC=0 FL_CPXRES=0 FL_ASLIFT=1 RL=Real:"2" RX=Real:"98.9240220736075424796510016920879489493191984183692841481667":DMS

In:  AM=GRAD FL_CPXRES=0 FL_ASLIFT=0 RY=Real:"3.453099789":MULTPI RX=Real:"2"
Out: EC=0 FL_CPXRES=0 FL_ASLIFT=1 RL=Real:"2" RX=Real:"109.91558008178615831072333521343105438813244268707698238685188":GRAD

In:  AM=RAD FL_CPXRES=0 FL_ASLIFT=0 RY=Real:"3.453099789":MULTPI RX=Real:"2"
Out: EC=0 FL_CPXRES=0 FL_ASLIFT=1 RL=Real:"2" RX=Real:"1.7265498945":RAD

In:  AM=MULTPI FL_CPXRES=0 FL_ASLIFT=0 RY=Real:"3.453099789":MULTPI RX=Real:"2"
Out: EC=0 FL_CPXRES=0 FL_ASLIFT=1 RL=Real:"2" RX=Real:"1.7265498945":MULTPI

In:  AM=DEG FL_CPXRES=0 FL_ASLIFT=0 RY=Real:"123.4":DEG RX=Real:"2":DEG
Out: EC=0 FL_CPXRES=0 FL_ASLIFT=1 RL=Real:"2":DEG RX=Real:"61.7"

In:  AM=DMS FL_CPXRES=0 FL_ASLIFT=0 RY=Real:"123.4":DEG RX=Real:"2":DMS
Out: EC=0 FL_CPXRES=0 FL_ASLIFT=1 RL=Real:"2":DMS RX=Real:"61.7"

In:  AM=GRAD FL_CPXRES=0 FL_ASLIFT=0 RY=Real:"123.4":DEG RX=Real:"2":GRAD
Out: EC=0 FL_CPXRES=0 FL_ASLIFT=1 RL=Real:"2":GRAD RX=Real:"68.555555555555555555555555555555555555555555555555555555555556"

In:  AM=RAD FL_CPXRES=0 FL_ASLIFT=0 RY=Real:"123.4":DEG RX=Real:"2":RAD
Out: EC=0 FL_CPXRES=0 FL_ASLIFT=1 RL=Real:"2":RAD RX=Real:"1.0768681484805013489619172041574740441942519552302446064119671"

In:  AM=MULTPI FL_CPXRES=0 FL_ASLIFT=0 RY=Real:"123.4":DEG RX=Real:"2":MULTPI
Out: EC=0 FL_CPXRES=0 FL_ASLIFT=1 RL=Real:"2":MULTPI RX=Real:"1.0768681484805013489619172041574740441942519552302446064119671"

In:  AM=DEG FL_CPXRES=0 FL_ASLIFT=0 RY=Real:"123.453099":DMS RX=Real:"2":DEG
Out: EC=0 FL_CPXRES=0 FL_ASLIFT=1 RL=Real:"2":DEG RX=Real:"61.7265495"

In:  AM=DMS FL_CPXRES=0 FL_ASLIFT=0 RY=Real:"123.453099":DMS RX=Real:"2":DMS
Out: EC=0 FL_CPXRES=0 FL_ASLIFT=1 RL=Real:"2":DMS RX=Real:"61.7265495"

In:  AM=GRAD FL_CPXRES=0 FL_ASLIFT=0 RY=Real:"123.453099":DMS RX=Real:"2":GRAD
Out: EC=0 FL_CPXRES=0 FL_ASLIFT=1 RL=Real:"2":GRAD RX=Real:"68.585055"

In:  AM=RAD FL_CPXRES=0 FL_ASLIFT=0 RY=Real:"123.453099":DMS RX=Real:"2":RAD
Out: EC=0 FL_CPXRES=0 FL_ASLIFT=1 RL=Real:"2":RAD RX=Real:"1.0773315246702595834929425594380539284266074705022929918119336"

In:  AM=MULTPI FL_CPXRES=0 FL_ASLIFT=0 RY=Real:"123.453099":DMS RX=Real:"2":MULTPI
Out: EC=0 FL_CPXRES=0 FL_ASLIFT=1 RL=Real:"2":MULTPI RX=Real:"1.0773315246702595834929425594380539284266074705022929918119336"

In:  AM=DEG FL_CPXRES=0 FL_ASLIFT=0 RY=Real:"123.453099":GRAD RX=Real:"2":DEG
Out: EC=0 FL_CPXRES=0 FL_ASLIFT=1 RL=Real:"2":DEG RX=Real:"55.55389455"

In:  AM=DMS FL_CPXRES=0 FL_ASLIFT=0 RY=Real:"123.453099":GRAD RX=Real:"2":DMS
Out: EC=0 FL_CPXRES=0 FL_ASLIFT=1 RL=Real:"2":DMS RX=Real:"55.55389455"

In:  AM=GRAD FL_CPXRES=0 FL_ASLIFT=0 RY=Real:"123.453099":GRAD RX=Real:"2":GRAD
Out: EC=0 FL_CPXRES=0 FL_ASLIFT=1 RL=Real:"2":GRAD RX=Real:"61.7265495"

In:  AM=RAD FL_CPXRES=0 FL_ASLIFT=0 RY=Real:"123.453099":GRAD RX=Real:"2":RAD
Out: EC=0 FL_CPXRES=0 FL_ASLIFT=1 RL=Real:"2":RAD RX=Real:"0.96959837220323362514364830349424853558394672345206369263074028"

In:  AM=MULTPI FL_CPXRES=0 FL_ASLIFT=0 RY=Real:"123.453099":GRAD RX=Real:"2":MULTPI
Out: EC=0 FL_CPXRES=0 FL_ASLIFT=1 RL=Real:"2":MULTPI RX=Real:"0.96959837220323362514364830349424853558394672345206369263074028"

In:  AM=DEG FL_CPXRES=0 FL_ASLIFT=0 RY=Real:"3.453099789":RAD RX=Real:"2":DEG
Out: EC=0 FL_CPXRES=0 FL_ASLIFT=1 RL=Real:"2":DEG RX=Real:"98.9240220736075424796510016920879489493191984183692841481667"

In:  AM=DMS FL_CPXRES=0 FL_ASLIFT=0 RY=Real:"3.453099789":RAD RX=Real:"2":DMS
Out: EC=0 FL_CPXRES=0 FL_ASLIFT=1 RL=Real:"2":DMS RX=Real:"98.9240220736075424796510016920879489493191984183692841481667"

In:  AM=GRAD FL_CPXRES=0 FL_ASLIFT=0 RY=Real:"3.453099789":RAD RX=Real:"2":GRAD
Out: EC=0 FL_CPXRES=0 FL_ASLIFT=1 RL=Real:"2":GRAD RX=Real:"109.91558008178615831072333521343105438813244268707698238685188"

In:  AM=RAD FL_CPXRES=0 FL_ASLIFT=0 RY=Real:"3.453099789":RAD RX=Real:"2":RAD
Out: EC=0 FL_CPXRES=0 FL_ASLIFT=1 RL=Real:"2":RAD RX=Real:"1.7265498945"

In:  AM=MULTPI FL_CPXRES=0 FL_ASLIFT=0 RY=Real:"3.453099789":RAD RX=Real:"2":MULTPI
Out: EC=0 FL_CPXRES=0 FL_ASLIFT=1 RL=Real:"2":MULTPI RX=Real:"1.7265498945"

In:  AM=DEG FL_CPXRES=0 FL_ASLIFT=0 RY=Real:"3.453099789":MULTPI RX=Real:"2":DEG
Out: EC=0 FL_CPXRES=0 FL_ASLIFT=1 RL=Real:"2":DEG RX=Real:"98.9240220736075424796510016920879489493191984183692841481667"

In:  AM=DMS FL_CPXRES=0 FL_ASLIFT=0 RY=Real:"3.453099789":MULTPI RX=Real:"2":DMS
Out: EC=0 FL_CPXRES=0 FL_ASLIFT=1 RL=Real:"2":DMS RX=Real:"98.9240220736075424796510016920879489493191984183692841481667"

In:  AM=GRAD FL_CPXRES=0 FL_ASLIFT=0 RY=Real:"3.453099789":MULTPI RX=Real:"2":GRAD
Out: EC=0 FL_CPXRES=0 FL_ASLIFT=1 RL=Real:"2":GRAD RX=Real:"109.91558008178615831072333521343105438813244268707698238685188"

In:  AM=RAD FL_CPXRES=0 FL_ASLIFT=0 RY=Real:"3.453099789":MULTPI RX=Real:"2":RAD
Out: EC=0 FL_CPXRES=0 FL_ASLIFT=1 RL=Real:"2":RAD RX=Real:"1.7265498945"

In:  AM=MULTPI FL_CPXRES=0 FL_ASLIFT=0 RY=Real:"3.453099789":MULTPI RX=Real:"2":MULTPI
Out: EC=0 FL_CPXRES=0 FL_ASLIFT=1 RL=Real:"2":MULTPI RX=Real:"1.7265498945"



;=======================================
; Real / Complex --> Complex
;=======================================
In:  FL_ASLIFT=0 FL_CPXRES=0 RY=Real:"12540" RX=Cplx:"123.456 i -6.78"
Out: EC=0 FL_CPXRES=1 FL_ASLIFT=1 RL=Cplx:"123.456 i -6.78" RX=Cplx:"101.26921954655994264774300155830463486479821262883202772543202 i 5.5615385929049735221592919790476398423999796010196438243457516"

In:  FL_ASLIFT=0 FL_CPXRES=0 RY=Real:"12540":DEG RX=Cplx:"123.456 i -6.78"
Out: EC=0 FL_CPXRES=1 FL_ASLIFT=1 RL=Cplx:"123.456 i -6.78" RX=Cplx:"101.26921954655994264774300155830463486479821262883202772543202 i 5.5615385929049735221592919790476398423999796010196438243457516"

In:  FL_ASLIFT=0 FL_CPXRES=0 RY=Real:"NaN" RX=Cplx:"123.456 i -6.78"
Out: EC=0 FL_CPXRES=1 FL_ASLIFT=1 RL=Cplx:"123.456 i -6.78" RX=Cplx:"NaN i NaN"

In:  FL_ASLIFT=0 FL_CPXRES=0 RY=Real:"12540" RX=Cplx:"NaN i -6.78"
Out: EC=0 FL_CPXRES=1 FL_ASLIFT=1 RL=Cplx:"NaN i -6.78" RX=Cplx:"NaN i NaN"

In:  FL_ASLIFT=0 FL_CPXRES=0 RY=Real:"12540" RX=Cplx:"123.456 i NaN"
Out: EC=0 FL_CPXRES=1 FL_ASLIFT=1 RL=Cplx:"123.456 i NaN" RX=Cplx:"NaN i NaN"

In:  FL_ASLIFT=0 FL_CPXRES=0 FL_SPCRES=1 RY=Real:"12540" RX=Cplx:"inf i 0"
Out: EC=0 FL_CPXRES=1 FL_ASLIFT=1 RL=Cplx:"inf i 0" RX=Cplx:"0 i 0"

In:  FL_ASLIFT=0 FL_CPXRES=0 FL_SPCRES=1 RY=Real:"12540" RX=Cplx:"0 i inf"
Out: EC=0 FL_CPXRES=1 FL_ASLIFT=1 RL=Cplx:"0 i inf" RX=Cplx:"0 i 0"

In:  FL_SPCRES=0

;=======================================
; Complex / Real --> Complex
;=======================================
In:  FL_ASLIFT=0 FL_CPXRES=0 RY=Cplx:"123.456 i -6.78" RX=Real:"12540"
Out: EC=0 FL_CPXRES=1 FL_ASLIFT=1 RL=Real:"12540" RX=Cplx:"0.0098449760765550239234449760765550239234449760765550239234449761 i -5.4066985645933014354066985645933014354066985645933014354066986e-4"

In:  FL_ASLIFT=0 FL_CPXRES=0 RY=Cplx:"123.456 i -6.78" RX=Real:"12540":DEG
Out: EC=0 FL_CPXRES=1 FL_ASLIFT=1 RL=Real:"12540":DEG RX=Cplx:"0.0098449760765550239234449760765550239234449760765550239234449761 i -5.4066985645933014354066985645933014354066985645933014354066986e-4"
