;*************************************************************
;*************************************************************
;**                                                         **
;**                      integer part                       **
;**                                                         **
;*************************************************************
;*************************************************************
In: FL_SPCRES=0 FL_CPXRES=0 SD=0 RM=0 IM=2compl SS=4 WS=64
Func: fnIp



;=======================================
; ip(Long Integer) --> Long Integer
;=======================================
In:  AM=DEG FL_ASLIFT=0 FL_CPXRES=0 RX=LonI:"5"
Out: EC=0 FL_CPXRES=0 FL_ASLIFT=1 RL=LonI:"5" RX=LonI:"5"

In:  AM=DEG FL_ASLIFT=0 FL_CPXRES=0 RX=LonI:"-5"
Out: EC=0 FL_CPXRES=0 FL_ASLIFT=1 RL=LonI:"-5" RX=LonI:"-5"



;=======================================
; ip(Time)
;=======================================



;=======================================
; ip(Date)
;=======================================



;=======================================
; ip(String) --> Error24
;=======================================
In:  FL_ASLIFT=0 RX=Stri:"String test"
Out: EC=24 FL_ASLIFT=0 RX=Stri:"String test"



;=======================================
; ip(Real Matrix)
;=======================================
In:  AM=RAD FL_ASLIFT=0 FL_CPXRES=0 RX=ReMa:"M2,3[1.1,-2.3,3.5,-5.7,7.8,-8.9]"
Out: EC=0 FL_CPXRES=0 FL_ASLIFT=1 RL=ReMa:"M2,3[1.1,-2.3,3.5,-5.7,7.8,-8.9]" RX=ReMa:"M2,3[1,-2,3,-5,7,-8]"



;=======================================
; ip(Complex Matrix)
;=======================================



;=======================================
; ip(Short Integer) --> Short Integer
;=======================================
In:  FL_ASLIFT=0 FL_CPXRES=0 RX=ShoI:"5#7"
Out: EC=0 FL_CPXRES=0 FL_ASLIFT=1 RX=LonI:"5"



;=======================================
; ip(Real) --> Long Integer
;=======================================
In:  AM=DEG FL_ASLIFT=0 FL_CPXRES=0 RX=Real:"0.0001"
Out: EC=0 FL_CPXRES=0 FL_ASLIFT=1 RL=Real:"0.0001" RX=LonI:"0"

In:  AM=DEG FL_ASLIFT=0 FL_CPXRES=0 RX=Real:"-0.0001"
Out: EC=0 FL_CPXRES=0 FL_ASLIFT=1 RL=Real:"-0.0001" RX=LonI:"0"

In:  AM=GRAD FL_ASLIFT=0 FL_CPXRES=0 RX=Real:"50.1"
Out: EC=0 FL_CPXRES=0 FL_ASLIFT=1 RL=Real:"50.1" RX=LonI:"50"

In:  AM=GRAD FL_ASLIFT=0 FL_CPXRES=0 RX=Real:"-50.1"
Out: EC=0 FL_CPXRES=0 FL_ASLIFT=1 RL=Real:"-50.1" RX=LonI:"-50"

In:  AM=DEG FL_ASLIFT=0 FL_CPXRES=0 RX=Real:"89.99999"
Out: EC=0 FL_CPXRES=0 FL_ASLIFT=1 RL=Real:"89.99999" RX=LonI:"89"

In:  AM=DEG FL_ASLIFT=0 FL_CPXRES=0 RX=Real:"-89.99999"
Out: EC=0 FL_CPXRES=0 FL_ASLIFT=1 RL=Real:"-89.99999" RX=LonI:"-89"

In:  AM=GRAD FL_ASLIFT=0 FL_CPXRES=0 RX=Real:"50546854216541525654542254525645458.154854"
Out: EC=0 FL_CPXRES=0 FL_ASLIFT=1 RL=Real:"50546854216541525654542254525645458.154854" RX=LonI:"50546854216541525654542254525645460"

In:  AM=GRAD FL_ASLIFT=0 FL_CPXRES=0 RX=Real:"-50546854216541525654542254525645458.154854"
Out: EC=0 FL_CPXRES=0 FL_ASLIFT=1 RL=Real:"-50546854216541525654542254525645458.154854" RX=LonI:"-50546854216541525654542254525645460"

In:  FL_ASLIFT=0 FL_CPXRES=0 RX=Real:"5.32564":DMS
Out: EC=0 FL_CPXRES=0 FL_ASLIFT=1 RL=Real:"5.32564":DMS RX=LonI:"5"

In:  FL_ASLIFT=0 FL_CPXRES=0 RX=Real:"-5.32564":GRAD
Out: EC=0 FL_CPXRES=0 FL_ASLIFT=1 RL=Real:"-5.32564":GRAD RX=LonI:"-5"

In:  AM=GRAD FL_ASLIFT=0 FL_CPXRES=0 RX=Real:"50546854216541525654542254525645458.154854":MULTPI
Out: EC=0 FL_CPXRES=0 FL_ASLIFT=1 RL=Real:"50546854216541525654542254525645458.154854":MULTPI RX=LonI:"50546854216541525654542254525645460"

In:  AM=GRAD FL_ASLIFT=0 FL_CPXRES=0 RX=Real:"-50546854216541525654542254525645458.154854":GRAD
Out: EC=0 FL_CPXRES=0 FL_ASLIFT=1 RL=Real:"-50546854216541525654542254525645458.154854":GRAD RX=LonI:"-50546854216541525654542254525645460"

; NaN
;In:  FL_ASLIFT=0 FL_CPXRES=0 RX=Real:"NaN":RAD
;Out: EC=1 FL_CPXRES=0 FL_ASLIFT=0 RX=Real:"NaN":RAD

; NaN
;In:  FL_ASLIFT=0 FL_CPXRES=0 RX=Real:"NaN"
;Out: EC=1 FL_CPXRES=0 FL_ASLIFT=0 RX=Real:"NaN"



;=======================================
; ip(Complex) --> Complex
;=======================================
In:  AM=DEG FL_ASLIFT=0 FL_CPXRES=0 RX=Cplx:"6.2 i -7.6"
Out: EC=24 FL_CPXRES=0 FL_ASLIFT=0 RX=Cplx:"6.2 i -7.6"
