;*************************************************************
;*************************************************************
;**                                                         **
;**                       ln (1+x)                          **
;**                                                         **
;*************************************************************
;*************************************************************
In: FL_SPCRES=0 FL_CPXRES=0 SD=0 RM=0 IM=2compl SS=4 WS=64
Func: fnLnP1



;=======================================
; ln(1+Long Integer) --> Real
;=======================================
In:  AM=DEG FL_ASLIFT=0 FL_CPXRES=0 RX=LonI:"4"
Out: EC=0 FL_CPXRES=0 FL_ASLIFT=1 RL=LonI:"4" RX=Real:"1.6094379124341003746007593332261876395256013542685177219126479"

In:  AM=DEG FL_ASLIFT=0 FL_CPXRES=0 RX=LonI:"-5"
Out: EC=1 FL_CPXRES=0 FL_ASLIFT=0 RX=LonI:"-5"

In:  AM=DEG FL_ASLIFT=0 FL_CPXRES=0 FL_SPCRES=1 RX=LonI:"-5"
Out: EC=0 FL_CPXRES=0 FL_ASLIFT=1 RL=LonI:"-5" RX=Real:"NaN"

In:  AM=DEG FL_ASLIFT=0 FL_CPXRES=1 FL_SPCRES=0 RX=LonI:"-6"
Out: EC=0 FL_CPXRES=1 FL_ASLIFT=1 RL=LonI:"-6" RX=Cplx:"1.6094379124341003746007593332261876395256013542685177219126479 i +3.1415926535897932384626433832795028841971693993751058209749446"

In:  AM=DEG FL_ASLIFT=0 FL_CPXRES=0 FL_SPCRES=0 RX=LonI:"-1"
Out: EC=1 FL_CPXRES=0 FL_ASLIFT=0 RX=LonI:"-1"

In:  AM=DEG FL_ASLIFT=0 FL_CPXRES=0 FL_SPCRES=1 RX=LonI:"-1"
Out: EC=0 FL_CPXRES=0 FL_ASLIFT=1 RL=LonI:"-1" RX=Real:"-inf"



;=======================================
; ln(1+Time)
;=======================================



;=======================================
; ln(1+Date)
;=======================================



;=======================================
; ln(1+String) --> Error24
;=======================================
In:  FL_ASLIFT=0 RX=Stri:"String test"
Out: EC=24 FL_ASLIFT=0 RX=Stri:"String test"



;=======================================
; ln(1+Real Matrix)
;=======================================
In:  AM=RAD FL_ASLIFT=0 FL_CPXRES=0 RX=ReMa:"M2,3[1,0.2,3,4,0.5,6]"
Out: EC=0 FL_CPXRES=0 FL_ASLIFT=1 RL=ReMa:"M2,3[1,0.2,3,4,0.5,6]" RX=ReMa:"M2,3[0.693147180559945309417232121458176568076,0.182321556793954626211718025154514633197,1.38629436111989061883446424291635313615,1.60943791243410037460075933322618763953,0.405465108108164381978013115464349136572,1.94591014905531330510535274344317972964]"

In:  AM=RAD FL_ASLIFT=0 FL_CPXRES=0 FL_SPCRES=0 RX=ReMa:"M2,3[-1,-0.2,-3,-4,-0.5,-6]"
Out: EC=1 FL_CPXRES=0 FL_ASLIFT=0 RX=ReMa:"M2,3[-1,-0.2,-3,-4,-0.5,-6]"

In:  AM=RAD FL_ASLIFT=0 FL_CPXRES=0 FL_SPCRES=1 RX=ReMa:"M2,3[-1,-0.2,-3,-4,-0.5,-6]"
Out: EC=0 FL_CPXRES=0 FL_ASLIFT=1 RL=ReMa:"M2,3[-1,-0.2,-3,-4,-0.5,-6]" RX=ReMa:"M2,3[-inf,-0.223143551314209755766295090309834503375,NaN,NaN,-0.693147180559945309417232121458176568076,NaN]"

In:  AM=RAD FL_ASLIFT=0 FL_CPXRES=1 RX=ReMa:"M2,3[-1,-0.2,-3,-4,-0.5,-6]"
Out: EC=0 FL_CPXRES=1 FL_ASLIFT=1 RL=ReMa:"M2,3[-1,-0.2,-3,-4,-0.5,-6]" RX=CxMa:"M2,3[-inf,-0.223143551314209755766295090309834503375,0.693147180559945309417232121458176568076i3.14159265358979323846264338327950288420,1.09861228866810969139524523692252570465i3.14159265358979323846264338327950288420,-0.693147180559945309417232121458176568076,1.60943791243410037460075933322618763953i3.14159265358979323846264338327950288420]"



;=======================================
; ln(1+Complex Matrix)
;=======================================
In:  AM=RAD FL_ASLIFT=0 FL_CPXRES=0 RX=CxMa:"M2,3[0,0i-1,2i-1,-3i2,4i3,-5i-4]"
Out: EC=0 FL_CPXRES=1 FL_ASLIFT=1 RL=CxMa:"M2,3[0,0i-1,2i-1,-3i2,4i3,-5i-4]" RX=CxMa:"M2,3[0,0.346573590279972654708616060729088284038i-0.785398163397448309615660845819875721049,1.151292546497022842008995727342182103801i-0.321750554396642193401404614358661319021,1.03972077083991796412584818218726485211i2.35619449019234492884698253745962716315,1.76318026230808069483338336966565155183i0.54041950027058415544357836460859991014,1.73286795139986327354308030364544142019i-2.35619449019234492884698253745962716315]"



;=======================================
; ln(1+Short Integer) --> Real
;=======================================
In:  FL_ASLIFT=0 FL_CPXRES=0 RX=ShoI:"4#7"
Out: EC=0 FL_CPXRES=0 FL_ASLIFT=1 RL=ShoI:"4#7" RX=Real:"1.6094379124341003746007593332261876395256013542685177219126479"

In:  FL_ASLIFT=0 FL_CPXRES=0 FL_SPCRES=1 IM=2COMPL RX=ShoI:"-1#3"
Out: EC=0 FL_CPXRES=0 FL_ASLIFT=1 RL=ShoI:"-1#3" RX=Real:"-inf"

In:  FL_ASLIFT=0 FL_CPXRES=0 FL_SPCRES=0 RX=ShoI:"-1#3"
Out: EC=1 FL_CPXRES=0 FL_ASLIFT=0 RX=ShoI:"-1#3"

In:  FL_ASLIFT=0 FL_CPXRES=1 RX=ShoI:"-6#7"
Out: EC=0 FL_CPXRES=1 FL_ASLIFT=1 RL=ShoI:"-6#7" RX=Cplx:"1.6094379124341003746007593332261876395256013542685177219126479 i +3.1415926535897932384626433832795028841971693993751058209749446"

In:  FL_ASLIFT=0 FL_CPXRES=0 FL_SPCRES=1 RX=ShoI:"-6#7"
Out: EC=0 FL_CPXRES=0 FL_ASLIFT=1 RL=ShoI:"-6#7" RX=Real:"NaN"

In:  FL_ASLIFT=0 FL_CPXRES=0 FL_SPCRES=0 RX=ShoI:"-6#7"
Out: EC=1 FL_CPXRES=0 FL_ASLIFT=0 RX=ShoI:"-6#7"



;=======================================
; ln(1+Real) --> Real
;=======================================
In:  AM=DEG FL_ASLIFT=0 FL_CPXRES=0 FL_SPCRES=0 RX=Real:"1.414213562373095048801688724209698E-15"
Out: EC=0 FL_CPXRES=0 FL_ASLIFT=1               RL=Real:"1.414213562373095048801688724209698E-15" RX=Real:"1.4142135623730940488016887242106408090415820623659789067783E-15"

In:  AM=DEG FL_ASLIFT=0 FL_CPXRES=0 FL_SPCRES=0 RX=Real:"-1.414213562373095048801688724209698E-15"
Out: EC=0 FL_CPXRES=0 FL_ASLIFT=1               RL=Real:"-1.414213562373095048801688724209698E-15" RX=Real:"-1.41421356237309604880168872421064080904158206436575667818E-15"

In:  AM=DEG FL_ASLIFT=0 FL_CPXRES=0 FL_SPCRES=0 RX=Real:"-0.0000000000000000000000000000000001"
Out: EC=0 FL_CPXRES=0 FL_ASLIFT=1               RL=Real:"-0.0000000000000000000000000000000001" RX=Real:"-1.000000000000000000000000000000000050000000000000000E-34"

In:  AM=DEG FL_ASLIFT=0 FL_CPXRES=0 FL_SPCRES=0 RX=Real:"-0.000000000000000000000000000000001"
Out: EC=0 FL_CPXRES=0 FL_ASLIFT=1               RL=Real:"-0.000000000000000000000000000000001" RX=Real:"-1.000000000000000000000000000000000500000000000000000E-33"

In:  AM=DEG FL_ASLIFT=0 FL_CPXRES=0 FL_SPCRES=0 RX=Real:"-0.00000000000000000000000000000001"
Out: EC=0 FL_CPXRES=0 FL_ASLIFT=1               RL=Real:"-0.00000000000000000000000000000001" RX=Real:"-1.000000000000000000000000000000005000000000000000000E-32"

In:  AM=DEG FL_ASLIFT=0 FL_CPXRES=0 FL_SPCRES=0 RX=Real:"-0.9999999999999999999999999999999999"
Out: EC=0 FL_CPXRES=0 FL_ASLIFT=1               RL=Real:"-0.9999999999999999999999999999999999" RX=Real:"-78.2878931617975532566117094592683830584374506133782811851"

In:  AM=DEG FL_ASLIFT=0 FL_CPXRES=0 FL_SPCRES=0 RX=Real:"-0.999999999999999999"
Out: EC=0 FL_CPXRES=0 FL_ASLIFT=1 RL=Real:"-0.999999999999999999" RX=Real:"-41.4465316738928223123238461843185557368198267953179135685"

In:  AM=DEG FL_ASLIFT=0 FL_CPXRES=1 FL_SPCRES=0 RX=Real:"-1.000000000000067"
Out: EC=0 FL_CPXRES=1 FL_ASLIFT=1 RL=Real:"-1.000000000000067" RX=Cplx:"-30.334083775519719200599799823901740363449589426209699303 i 3.1415926535897932384626433832795028841971693993751058209"

In:  AM=DEG FL_ASLIFT=0 FL_CPXRES=0 FL_SPCRES=0 RX=Real:"-0.9999"
Out: EC=0 FL_CPXRES=0 FL_ASLIFT=1 RL=Real:"-0.9999" RX=Real:"-9.2103403719761827360719658187374568304044059545150919041333116"

In:  AM=DEG FL_ASLIFT=0 FL_CPXRES=0 FL_SPCRES=0 RX=Real:"-0.999999999999999999999999999"
Out: EC=0 FL_CPXRES=0 FL_ASLIFT=1 RL=Real:"-0.999999999999999999999999999" RX=Real:"-62.1697975108392334684857692764778336052297401929768703528"

In:  AM=DEG FL_ASLIFT=0 FL_CPXRES=0 FL_SPCRES=0 RX=Real:"-0.9999999999999999999999999999999999"
Out: EC=0 FL_CPXRES=0 FL_ASLIFT=1 RL=Real:"-0.9999999999999999999999999999999999" RX=Real:"-78.2878931617975532566117094592683830584374506133782811851"

In:  AM=DEG FL_ASLIFT=0 FL_CPXRES=1 FL_SPCRES=0 RX=Real:"-1.00001"
Out: EC=0 FL_CPXRES=1 FL_ASLIFT=1 RL=Real:"-1.00001" RX=Cplx:"-11.512925464970228420089957273421821038005507443143864880 i +3.1415926535897932384626433832795028841971693993751058209"

In:  AM=DEG FL_ASLIFT=0 FL_CPXRES=1 FL_SPCRES=0 RX=Real:"-1.000000000000000000000000000000001"
Out: EC=0 FL_CPXRES=1 FL_ASLIFT=1 RL=Real:"-1.000000000000000000000000000000001" RX=Cplx:"-75.985308068803507572593718004584018850836349124749508209 i 3.1415926535897932384626433832795028841971693993751058209"

In:  AM=GRAD FL_ASLIFT=0 FL_CPXRES=0 RX=Real:"49"
Out: EC=0 FL_CPXRES=0 FL_ASLIFT=1 RL=Real:"49" RX=Real:"3.9120230054281460586187507879105518471267028428972906979459758"

In:  AM=DEG FL_ASLIFT=0 FL_CPXRES=0 RX=Real:"88.99999"
Out: EC=0 FL_CPXRES=0 FL_ASLIFT=1 RL=Real:"88.99999" RX=Real:"4.4998095592191477828574073971698667642482813118134294911960506"

In:  FL_ASLIFT=0 FL_CPXRES=0 RX=Real:"4.32564":DMS
Out: EC=0 FL_CPXRES=0 FL_ASLIFT=1 RL=Real:"4.32564":DMS RX=Real:"1.6725328921669418517652012686144062999663632357943689961903248"

In:  FL_ASLIFT=0 FL_CPXRES=0 RX=Real:"-6.32564":GRAD
Out: EC=1 FL_CPXRES=0 FL_ASLIFT=0 RX=Real:"-6.32564":GRAD

In:  FL_ASLIFT=0 FL_CPXRES=1 RX=Real:"-6.32564":GRAD
Out: EC=0 FL_CPXRES=1 FL_ASLIFT=1 RL=Real:"-6.32564":GRAD RX=Cplx:"1.6725328921669418517652012686144062999663632357943689961903248 i +3.1415926535897932384626433832795028841971693993751058209749446"

In:  AM=DEG FL_ASLIFT=0 FL_CPXRES=0 FL_SPCRES=0 RX=Real:"-1"
Out: EC=1 FL_CPXRES=0 FL_ASLIFT=0 RX=Real:"-1"

In:  AM=DEG FL_ASLIFT=0 FL_CPXRES=0 FL_SPCRES=1 RX=Real:"-1"
Out: EC=0 FL_CPXRES=0 FL_ASLIFT=1 RL=Real:"-1" RX=Real:"-inf"

In:  AM=DEG FL_ASLIFT=0 FL_CPXRES=0 FL_SPCRES=0 RX=Real:"-6"
Out: EC=1 FL_CPXRES=0 FL_ASLIFT=0 RX=Real:"-6"

In:  AM=DEG FL_ASLIFT=0 FL_CPXRES=0 FL_SPCRES=1 RX=Real:"-6"
Out: EC=0 FL_CPXRES=0 FL_ASLIFT=1 RL=Real:"-6" RX=Real:"NaN"

In:  AM=DEG FL_ASLIFT=0 FL_CPXRES=1 FL_SPCRES=0 RX=Real:"-6"
Out: EC=0 FL_CPXRES=1 FL_ASLIFT=1 RL=Real:"-6" RX=Cplx:"1.6094379124341003746007593332261876395256013542685177219126479 i +3.1415926535897932384626433832795028841971693993751058209749446"

; NaN
In:  FL_ASLIFT=0 FL_CPXRES=0 RX=Real:"NaN":RAD
Out: EC=0 FL_CPXRES=0 FL_ASLIFT=1 RL=Real:"NaN":RAD RX=Real:"NaN"

In:  FL_ASLIFT=0 FL_CPXRES=0 RX=Real:"NaN"
Out: EC=0 FL_CPXRES=0 FL_ASLIFT=1 RL=Real:"NaN" RX=Real:"NaN"

; Infinity
In:  FL_ASLIFT=0 FL_CPXRES=0 FL_SPCRES=1 RX=Real:"inf":DEG
Out: EC=0 FL_CPXRES=0 FL_ASLIFT=1 RL=Real:"inf":DEG RX=Real:"NaN"

In:  FL_ASLIFT=0 FL_CPXRES=0 FL_SPCRES=0 RX=Real:"inf":MULTPI
Out: EC=1 FL_CPXRES=0 FL_ASLIFT=0 RX=Real:"inf":MULTPI

In:  FL_ASLIFT=0 FL_CPXRES=0 FL_SPCRES=1 RX=Real:"inf"
Out: EC=0 FL_CPXRES=0 FL_ASLIFT=1 RL=Real:"inf" RX=Real:"NaN"

In:  FL_ASLIFT=0 FL_CPXRES=0 FL_SPCRES=0 RX=Real:"inf"
Out: EC=1 FL_CPXRES=0 FL_ASLIFT=0 RX=Real:"inf"

In:  FL_ASLIFT=0 FL_CPXRES=0 FL_SPCRES=0 RX=Real:"-inf"
Out: EC=1 FL_CPXRES=0 FL_ASLIFT=0 RX=Real:"-inf"

In:  FL_ASLIFT=0 FL_CPXRES=0 FL_SPCRES=1 RX=Real:"-inf":DMS
Out: EC=0 FL_CPXRES=0 FL_ASLIFT=1 RL=Real:"-inf":DMS RX=Real:"NaN"

In:  FL_ASLIFT=0 FL_CPXRES=0 FL_SPCRES=0 RX=Real:"-inf":MULTPI
Out: EC=1 FL_CPXRES=0 FL_ASLIFT=0 RX=Real:"-inf":MULTPI

In:  FL_ASLIFT=0 FL_CPXRES=0 FL_SPCRES=1 RX=Real:"-inf":RAD
Out: EC=0 FL_CPXRES=0 FL_ASLIFT=1 RL=Real:"-inf":RAD RX=Real:"NaN"



;=======================================
; ln(1+Complex) --> Complex
;=======================================
In:  AM=DEG FL_ASLIFT=0 FL_CPXRES=0 RX=Cplx:"5.2 i -7.6"
Out: EC=0 FL_CPXRES=1 FL_ASLIFT=1 RL=Cplx:"5.2 i -7.6" RX=Cplx:"2.2832146788358304029104118896852890645898720888296627790756552 i -0.88650153513374682918073902244235637563185763987701679851894587"

In:  AM=DEG FL_ASLIFT=0 FL_CPXRES=0 RX=Cplx:"-0.000000000000000000000000000000001 i +1"
Out: EC=0 FL_CPXRES=1 FL_ASLIFT=1 RL=Cplx:"-0.000000000000000000000000000000001 i +1" RX=Cplx:"0.34657359027997265470861606072908778403775006718012762706 i 0.78539816339744830961566084581987622104929234984377645524"

In:  AM=DEG FL_ASLIFT=0 FL_CPXRES=0 FL_SPCRES=0 RX=Cplx:"1.414213562373095048801688724209698E-15 i 0"
Out: EC=0 FL_CPXRES=1 FL_ASLIFT=1 RL=Cplx:"1.414213562373095048801688724209698E-15 i 0" RX=Cplx:"1.4142135623730940488016887242106408090415820623659789067783E-15 i 0"

In:  AM=DEG FL_ASLIFT=0 FL_CPXRES=0 FL_SPCRES=0 RX=Cplx:"-1.414213562373095048801688724209698E-15 i 0"
Out: EC=0 FL_CPXRES=1 FL_ASLIFT=1 RL=Cplx:"-1.414213562373095048801688724209698E-15 i 0" RX=Cplx:"-1.41421356237309604880168872421064080904158206436575667818E-15 i 0"


In:  AM=DEG FL_ASLIFT=0 FL_CPXRES=0 RX=Cplx:"-1.000000067 i +1"
Out: EC=0 FL_CPXRES=1 FL_ASLIFT=1   RL=Cplx:"-1.000000067 i +1" RX=Cplx:"2.24449999999999496221975000001507639702816661590820E-15 i 1.57079639379489661923122143730641810903527638775421"
;needs 51 digits to pass

In:  AM=DEG FL_ASLIFT=0 FL_CPXRES=0 RX=Cplx:"-1.000000000067 i +1"
Out: EC=0 FL_CPXRES=1 FL_ASLIFT=1   RL=Cplx:"-1.000000000067 i +1" RX=Cplx:"2.24449999999999999999496221975000000000001507639702E-21 i 1.57079632686189661923132169163965118776525136635421"
;needs 75 digits to pass


In:  AM=DEG FL_ASLIFT=0 FL_CPXRES=0 RX=Cplx:"-1.000000000000067 i +1"
Out: EC=0 FL_CPXRES=1 FL_ASLIFT=1   RL=Cplx:"-1.000000000000067 i +1" RX=Cplx:"2.24449999999999999999999999496221975000000000000000E-27 i 1.57079632679496361923132169163975144209848444535421"
;needs 75 digits to pass

In:  AM=DEG FL_ASLIFT=0 FL_CPXRES=0 RX=Cplx:"-0.000000000000000000000000000000001 i +0.000000000000000000000000000000001"
Out: EC=0 FL_CPXRES=1 FL_ASLIFT=1   RL=Cplx:"-0.000000000000000000000000000000001 i +0.000000000000000000000000000000001" RX=Cplx:"-1.0000000000000000000000000000000000000000000000000E-33 i 1.00000000000000000000000000000000100000000000000000E-33"


In:  FL_ASLIFT=0 FL_CPXRES=0 FL_SPCRES=1 RX=Cplx:"-1 i 0"
Out: EC=0 FL_CPXRES=1 FL_ASLIFT=1 RL=Cplx:"-1 i 0" RX=Cplx:"-inf i 0"

In:  FL_ASLIFT=0 FL_CPXRES=0 FL_SPCRES=0 RX=Cplx:"-1 i 0"
Out: EC=1 FL_CPXRES=0 FL_ASLIFT=0 RX=Cplx:"-1 i 0"
